%YAML 1.1
%TAG !u! tag:unity3d.com,2011:
--- !u!1 &2537404389517285642
GameObject:
  m_ObjectHideFlags: 0
  m_CorrespondingSourceObject: {fileID: 0}
  m_PrefabInstance: {fileID: 0}
  m_PrefabAsset: {fileID: 0}
  serializedVersion: 6
  m_Component:
  - component: {fileID: 2537404389517285685}
  - component: {fileID: 2537404389517285687}
  - component: {fileID: 2537404389517285684}
  m_Layer: 5
  m_Name: CriminalCaseLogMenu
  m_TagString: Untagged
  m_Icon: {fileID: 0}
  m_NavMeshLayer: 0
  m_StaticEditorFlags: 0
  m_IsActive: 1
--- !u!224 &2537404389517285685
RectTransform:
  m_ObjectHideFlags: 0
  m_CorrespondingSourceObject: {fileID: 0}
  m_PrefabInstance: {fileID: 0}
  m_PrefabAsset: {fileID: 0}
  m_GameObject: {fileID: 2537404389517285642}
  m_LocalRotation: {x: 0, y: 0, z: 0, w: 1}
  m_LocalPosition: {x: 0, y: 0, z: 0}
  m_LocalScale: {x: 1, y: 1, z: 1}
  m_Children:
  - {fileID: 9036615943900578969}
  m_Father: {fileID: 0}
  m_RootOrder: 0
  m_LocalEulerAnglesHint: {x: 0, y: 0, z: 0}
  m_AnchorMin: {x: 0, y: 0}
  m_AnchorMax: {x: 1, y: 1}
  m_AnchoredPosition: {x: 0, y: -25}
  m_SizeDelta: {x: 0, y: -50}
  m_Pivot: {x: 0.5, y: 0.5}
--- !u!222 &2537404389517285687
CanvasRenderer:
  m_ObjectHideFlags: 0
  m_CorrespondingSourceObject: {fileID: 0}
  m_PrefabInstance: {fileID: 0}
  m_PrefabAsset: {fileID: 0}
  m_GameObject: {fileID: 2537404389517285642}
  m_CullTransparentMesh: 0
--- !u!114 &2537404389517285684
MonoBehaviour:
  m_ObjectHideFlags: 0
  m_CorrespondingSourceObject: {fileID: 0}
  m_PrefabInstance: {fileID: 0}
  m_PrefabAsset: {fileID: 0}
  m_GameObject: {fileID: 2537404389517285642}
  m_Enabled: 1
  m_EditorHideFlags: 0
  m_Script: {fileID: -765806418, guid: f70555f144d8491a825f0804e09c671c, type: 3}
  m_Name: 
  m_EditorClassIdentifier: 
  m_Material: {fileID: 0}
  m_Color: {r: 1, g: 1, b: 1, a: 0}
  m_RaycastTarget: 1
  m_OnCullStateChanged:
    m_PersistentCalls:
      m_Calls: []
    m_TypeName: UnityEngine.UI.MaskableGraphic+CullStateChangedEvent, UnityEngine.UI,
      Version=1.0.0.0, Culture=neutral, PublicKeyToken=null
  m_Sprite: {fileID: 0}
  m_Type: 0
  m_PreserveAspect: 1
  m_FillCenter: 1
  m_FillMethod: 4
  m_FillAmount: 1
  m_FillClockwise: 1
  m_FillOrigin: 0
  m_UseSpriteMesh: 0
--- !u!1001 &7906450606301684929
PrefabInstance:
  m_ObjectHideFlags: 0
  serializedVersion: 2
  m_Modification:
    m_TransformParent: {fileID: 2537404389517285685}
    m_Modifications:
    - target: {fileID: 1211988081085505631, guid: d9a766db9f4cfd24b88d3461d475b57d,
        type: 3}
      propertyPath: m_Name
      value: CriminalCaseLog
      objectReference: {fileID: 0}
    - target: {fileID: 1211988081085505624, guid: d9a766db9f4cfd24b88d3461d475b57d,
        type: 3}
      propertyPath: m_LocalPosition.x
      value: 0
      objectReference: {fileID: 0}
    - target: {fileID: 1211988081085505624, guid: d9a766db9f4cfd24b88d3461d475b57d,
        type: 3}
      propertyPath: m_LocalPosition.y
      value: 0
      objectReference: {fileID: 0}
    - target: {fileID: 1211988081085505624, guid: d9a766db9f4cfd24b88d3461d475b57d,
        type: 3}
      propertyPath: m_LocalPosition.z
      value: 0
      objectReference: {fileID: 0}
    - target: {fileID: 1211988081085505624, guid: d9a766db9f4cfd24b88d3461d475b57d,
        type: 3}
      propertyPath: m_LocalRotation.x
      value: 0
      objectReference: {fileID: 0}
    - target: {fileID: 1211988081085505624, guid: d9a766db9f4cfd24b88d3461d475b57d,
        type: 3}
      propertyPath: m_LocalRotation.y
      value: 0
      objectReference: {fileID: 0}
    - target: {fileID: 1211988081085505624, guid: d9a766db9f4cfd24b88d3461d475b57d,
        type: 3}
      propertyPath: m_LocalRotation.z
      value: 0
      objectReference: {fileID: 0}
    - target: {fileID: 1211988081085505624, guid: d9a766db9f4cfd24b88d3461d475b57d,
        type: 3}
      propertyPath: m_LocalRotation.w
      value: 1
      objectReference: {fileID: 0}
    - target: {fileID: 1211988081085505624, guid: d9a766db9f4cfd24b88d3461d475b57d,
        type: 3}
      propertyPath: m_RootOrder
      value: 0
      objectReference: {fileID: 0}
    - target: {fileID: 1211988081085505624, guid: d9a766db9f4cfd24b88d3461d475b57d,
        type: 3}
      propertyPath: m_LocalEulerAnglesHint.x
      value: 0
      objectReference: {fileID: 0}
    - target: {fileID: 1211988081085505624, guid: d9a766db9f4cfd24b88d3461d475b57d,
        type: 3}
      propertyPath: m_LocalEulerAnglesHint.y
      value: 0
      objectReference: {fileID: 0}
    - target: {fileID: 1211988081085505624, guid: d9a766db9f4cfd24b88d3461d475b57d,
        type: 3}
      propertyPath: m_LocalEulerAnglesHint.z
      value: 0
      objectReference: {fileID: 0}
    - target: {fileID: 1211988081085505624, guid: d9a766db9f4cfd24b88d3461d475b57d,
        type: 3}
      propertyPath: m_AnchoredPosition.x
      value: 0
      objectReference: {fileID: 0}
    - target: {fileID: 1211988081085505624, guid: d9a766db9f4cfd24b88d3461d475b57d,
        type: 3}
      propertyPath: m_AnchoredPosition.y
      value: -20
      objectReference: {fileID: 0}
    - target: {fileID: 1211988081085505624, guid: d9a766db9f4cfd24b88d3461d475b57d,
        type: 3}
      propertyPath: m_SizeDelta.x
      value: -40
      objectReference: {fileID: 0}
    - target: {fileID: 1211988081085505624, guid: d9a766db9f4cfd24b88d3461d475b57d,
        type: 3}
      propertyPath: m_SizeDelta.y
      value: -40
      objectReference: {fileID: 0}
    - target: {fileID: 1211988081085505624, guid: d9a766db9f4cfd24b88d3461d475b57d,
        type: 3}
      propertyPath: m_AnchorMin.x
      value: 0
      objectReference: {fileID: 0}
    - target: {fileID: 1211988081085505624, guid: d9a766db9f4cfd24b88d3461d475b57d,
        type: 3}
      propertyPath: m_AnchorMin.y
      value: 0
      objectReference: {fileID: 0}
    - target: {fileID: 1211988081085505624, guid: d9a766db9f4cfd24b88d3461d475b57d,
        type: 3}
      propertyPath: m_AnchorMax.x
      value: 1
      objectReference: {fileID: 0}
    - target: {fileID: 1211988081085505624, guid: d9a766db9f4cfd24b88d3461d475b57d,
        type: 3}
      propertyPath: m_AnchorMax.y
      value: 1
      objectReference: {fileID: 0}
    - target: {fileID: 1211988081085505624, guid: d9a766db9f4cfd24b88d3461d475b57d,
        type: 3}
      propertyPath: m_Pivot.x
      value: 0.5
      objectReference: {fileID: 0}
    - target: {fileID: 1211988081085505624, guid: d9a766db9f4cfd24b88d3461d475b57d,
        type: 3}
      propertyPath: m_Pivot.y
      value: 0.5
      objectReference: {fileID: 0}
    m_RemovedComponents: []
  m_SourcePrefab: {fileID: 100100000, guid: d9a766db9f4cfd24b88d3461d475b57d, type: 3}
--- !u!224 &9036615943900578969 stripped
RectTransform:
  m_CorrespondingSourceObject: {fileID: 1211988081085505624, guid: d9a766db9f4cfd24b88d3461d475b57d,
    type: 3}
  m_PrefabInstance: {fileID: 7906450606301684929}
  m_PrefabAsset: {fileID: 0}
